\relax 
\providecommand\hyper@newdestlabel[2]{}
\providecommand\HyperFirstAtBeginDocument{\AtBeginDocument}
\HyperFirstAtBeginDocument{\ifx\hyper@anchor\@undefined
\global\let\oldcontentsline\contentsline
\gdef\contentsline#1#2#3#4{\oldcontentsline{#1}{#2}{#3}}
\global\let\oldnewlabel\newlabel
\gdef\newlabel#1#2{\newlabelxx{#1}#2}
\gdef\newlabelxx#1#2#3#4#5#6{\oldnewlabel{#1}{{#2}{#3}}}
\AtEndDocument{\ifx\hyper@anchor\@undefined
\let\contentsline\oldcontentsline
\let\newlabel\oldnewlabel
\fi}
\fi}
\global\let\hyper@last\relax 
\gdef\HyperFirstAtBeginDocument#1{#1}
\providecommand\HyField@AuxAddToFields[1]{}
\providecommand\HyField@AuxAddToCoFields[2]{}
\@writefile{toc}{\contentsline {chapter}{\numberline {1}Hierarchical Index}{1}{chapter.1}}
\@writefile{lof}{\addvspace {10\p@ }}
\@writefile{lot}{\addvspace {10\p@ }}
\@writefile{toc}{\contentsline {section}{\numberline {1.1}Class Hierarchy}{1}{section.1.1}}
\@writefile{toc}{\contentsline {chapter}{\numberline {2}Class Index}{3}{chapter.2}}
\@writefile{lof}{\addvspace {10\p@ }}
\@writefile{lot}{\addvspace {10\p@ }}
\@writefile{toc}{\contentsline {section}{\numberline {2.1}Class List}{3}{section.2.1}}
\@writefile{toc}{\contentsline {chapter}{\numberline {3}Class Documentation}{5}{chapter.3}}
\@writefile{lof}{\addvspace {10\p@ }}
\@writefile{lot}{\addvspace {10\p@ }}
\@writefile{toc}{\contentsline {section}{\numberline {3.1}Contrainte Struct Reference}{5}{section.3.1}}
\newlabel{structContrainte}{{3.1}{5}{Contrainte Struct Reference}{section.3.1}{}}
\newlabel{structContrainte_a3248f7cc054cfd4d52af8f559076311f}{{3.1}{5}{Public Attributes}{section*.2}{}}
\newlabel{structContrainte_a6c32979d0883cd8707728e9e8392da0c}{{3.1}{5}{Public Attributes}{section*.2}{}}
\newlabel{structContrainte_ad37677365c3db1a258207d47f4b0ff31}{{3.1}{5}{Public Attributes}{section*.2}{}}
\@writefile{toc}{\contentsline {section}{\numberline {3.2}Matrice\discretionary {-}{}{}A Class Reference}{5}{section.3.2}}
\newlabel{classMatriceA}{{3.2}{5}{Matrice\-A Class Reference}{section.3.2}{}}
\newlabel{classMatriceA_a44945d2ac7ccf59182230271b4596417}{{3.2}{5}{Public Member Functions}{section*.3}{}}
\newlabel{classMatriceA_aba4077f4d328e1ef67c685266038ce89}{{3.2}{5}{Public Member Functions}{section*.3}{}}
\newlabel{classMatriceA_ad828d49e668beb8df771c720b70ad5d9}{{3.2}{5}{Public Member Functions}{section*.3}{}}
\gdef \PWST@i{1}
\gdef \PWST@ii{1}
\gdef \PWST@iii{1}
\@writefile{toc}{\contentsline {subsection}{\numberline {3.2.1}Detailed Description}{6}{subsection.3.2.1}}
\@writefile{toc}{\contentsline {subsection}{\numberline {3.2.2}Constructor \& Destructor Documentation}{6}{subsection.3.2.2}}
\@writefile{toc}{\contentsline {subsubsection}{\numberline {3.2.2.1}Matrice\discretionary {-}{}{}A}{6}{subsubsection.3.2.2.1}}
\newlabel{classMatriceA_afea122f278ef4ec5869b8876e51fae52}{{3.2.2.1}{6}{Matrice\-A}{subsubsection.3.2.2.1}{}}
\@writefile{toc}{\contentsline {subsection}{\numberline {3.2.3}Member Function Documentation}{6}{subsection.3.2.3}}
\@writefile{toc}{\contentsline {subsubsection}{\numberline {3.2.3.1}afficher\discretionary {-}{}{}Matrice}{6}{subsubsection.3.2.3.1}}
\newlabel{classMatriceA_a8504f920d06712b48e026c2130e11e6e}{{3.2.3.1}{6}{afficher\-Matrice}{subsubsection.3.2.3.1}{}}
\@writefile{toc}{\contentsline {subsubsection}{\numberline {3.2.3.2}get}{6}{subsubsection.3.2.3.2}}
\newlabel{classMatriceA_a55343cdd37a3d6cc1ed3bf6eeb0c5313}{{3.2.3.2}{6}{get}{subsubsection.3.2.3.2}{}}
\@writefile{toc}{\contentsline {subsubsection}{\numberline {3.2.3.3}set}{6}{subsubsection.3.2.3.3}}
\newlabel{classMatriceA_ae790bf5166e0783df35ce2df17c2aae9}{{3.2.3.3}{6}{set}{subsubsection.3.2.3.3}{}}
\@writefile{toc}{\contentsline {section}{\numberline {3.3}Probleme Struct Reference}{7}{section.3.3}}
\newlabel{structProbleme}{{3.3}{7}{Probleme Struct Reference}{section.3.3}{}}
\newlabel{structProbleme_a0b25be190da98782bcbe4938ba91f324}{{3.3}{7}{Public Attributes}{section*.4}{}}
\newlabel{structProbleme_a0887513dc05709e3850c46c12229082b}{{3.3}{7}{Public Attributes}{section*.4}{}}
\newlabel{structProbleme_a04713125aa80640a5149d996862e57b0}{{3.3}{7}{Public Attributes}{section*.4}{}}
\newlabel{structProbleme_a7529d19ba9925f5509669b5dadcbd7a0}{{3.3}{7}{Public Attributes}{section*.4}{}}
\newlabel{structProbleme_a17ece691334c64c57d7973d0af6e33b9}{{3.3}{7}{Public Attributes}{section*.4}{}}
\newlabel{structProbleme_a7ef73461ead3a076fa35d5a8392d5a8f}{{3.3}{7}{Public Attributes}{section*.4}{}}
\newlabel{structProbleme_a367717242376c8600622fe0110e5281c}{{3.3}{7}{Public Attributes}{section*.4}{}}
\newlabel{structProbleme_a441262c011c335464d26eb2a35d56ea6}{{3.3}{7}{Public Attributes}{section*.4}{}}
\@writefile{toc}{\contentsline {section}{\numberline {3.4}S\discretionary {-}{}{}Variable Struct Reference}{7}{section.3.4}}
\newlabel{structSVariable}{{3.4}{7}{S\-Variable Struct Reference}{section.3.4}{}}
\newlabel{structSVariable_ac1a6f0e55a5f4154a9c6ca8087c11508}{{3.4}{7}{Public Attributes}{section*.5}{}}
\newlabel{structSVariable_af1a9b0e6b43a4fe7baea5b2b0d933ded}{{3.4}{7}{Public Attributes}{section*.5}{}}
\@writefile{toc}{\contentsline {section}{\numberline {3.5}Tableau\discretionary {-}{}{}Simplexe Class Reference}{7}{section.3.5}}
\newlabel{classTableauSimplexe}{{3.5}{7}{Tableau\-Simplexe Class Reference}{section.3.5}{}}
\newlabel{classTableauSimplexe_a36dfdd0e7be36e290361871533c976c1}{{3.5}{7}{Public Member Functions}{section*.6}{}}
\newlabel{classTableauSimplexe_a982b51189bf47f3847416e07a6eae755}{{3.5}{7}{Public Member Functions}{section*.6}{}}
\newlabel{classTableauSimplexe_ac925129b5339071c597589880b78ec9d}{{3.5}{7}{Public Member Functions}{section*.6}{}}
\newlabel{classTableauSimplexe_ae433f4966992a4dbb80665d86d2d718c}{{3.5}{7}{Public Member Functions}{section*.6}{}}
\newlabel{classTableauSimplexe_a2b1d57bf28caecbc13dae5ab146213c8}{{3.5}{7}{Public Member Functions}{section*.6}{}}
\newlabel{classTableauSimplexe_a96ea48d6faa1e44a7e6560095fdbbd9b}{{3.5}{7}{Public Member Functions}{section*.6}{}}
\newlabel{classTableauSimplexe_aa3595cc8ba132670298d5bd4de5e1a1f}{{3.5}{7}{Public Member Functions}{section*.6}{}}
\@writefile{toc}{\contentsline {subsection}{\numberline {3.5.1}Constructor \& Destructor Documentation}{8}{subsection.3.5.1}}
\@writefile{toc}{\contentsline {subsubsection}{\numberline {3.5.1.1}Tableau\discretionary {-}{}{}Simplexe}{8}{subsubsection.3.5.1.1}}
\newlabel{classTableauSimplexe_ae4f2000bef2146d753a52151b817adaf}{{3.5.1.1}{8}{Tableau\-Simplexe}{subsubsection.3.5.1.1}{}}
\@writefile{toc}{\contentsline {subsection}{\numberline {3.5.2}Member Function Documentation}{8}{subsection.3.5.2}}
\@writefile{toc}{\contentsline {subsubsection}{\numberline {3.5.2.1}calcul\discretionary {-}{}{}Simplexe}{8}{subsubsection.3.5.2.1}}
\newlabel{classTableauSimplexe_afc2860b1925963216f3019909e91af2d}{{3.5.2.1}{8}{calcul\-Simplexe}{subsubsection.3.5.2.1}{}}
\@writefile{toc}{\contentsline {subsubsection}{\numberline {3.5.2.2}chercher\discretionary {-}{}{}Pivot}{8}{subsubsection.3.5.2.2}}
\newlabel{classTableauSimplexe_ae67aea074850495c084336ff96c9919e}{{3.5.2.2}{8}{chercher\-Pivot}{subsubsection.3.5.2.2}{}}
\@writefile{toc}{\contentsline {subsubsection}{\numberline {3.5.2.3}solution\discretionary {-}{}{}Trouvee}{8}{subsubsection.3.5.2.3}}
\newlabel{classTableauSimplexe_a51a12ee48907e1f1c126509bb9d53609}{{3.5.2.3}{8}{solution\-Trouvee}{subsubsection.3.5.2.3}{}}
\@writefile{toc}{\contentsline {subsection}{\numberline {3.5.3}Friends And Related Function Documentation}{8}{subsection.3.5.3}}
\@writefile{toc}{\contentsline {subsubsection}{\numberline {3.5.3.1}operator$<$$<$}{8}{subsubsection.3.5.3.1}}
\newlabel{classTableauSimplexe_acba4474e5aeb78c8d01867ce4693cbe9}{{3.5.3.1}{8}{operator$<$$<$}{subsubsection.3.5.3.1}{}}
\@writefile{toc}{\contentsline {section}{\numberline {3.6}Vecteur\discretionary {-}{}{}Bb Class Reference}{8}{section.3.6}}
\newlabel{classVecteurBb}{{3.6}{8}{Vecteur\-Bb Class Reference}{section.3.6}{}}
\newlabel{classVecteurBb_a1ab72da63bbfd7056123cd0298e90a23}{{3.6}{8}{Public Member Functions}{section*.8}{}}
\newlabel{classVecteurBb_a9c36f06689b0ffcbc762857ade85df08}{{3.6}{8}{Public Member Functions}{section*.8}{}}
\newlabel{classVecteurBb_aeaf26c0e84fde277c9c0608ab17e5bbc}{{3.6}{8}{Public Member Functions}{section*.8}{}}
\newlabel{classVecteurBb_aae4dde41294cd9c11cb1f0cc2f613c78}{{3.6}{8}{Public Member Functions}{section*.8}{}}
\newlabel{classVecteurBb_aeae335004d10c1563126a38c491f0bff}{{3.6}{9}{Public Member Functions}{section*.8}{}}
\newlabel{classVecteurBb_accbe7315eaf7ec1769b8a978d5606409}{{3.6}{9}{Public Member Functions}{section*.8}{}}
\newlabel{classVecteurBb_a1e1413c33e2bcf88be1de324214ec7c3}{{3.6}{9}{Public Member Functions}{section*.8}{}}
\@writefile{toc}{\contentsline {subsection}{\numberline {3.6.1}Detailed Description}{9}{subsection.3.6.1}}
\@writefile{toc}{\contentsline {section}{\numberline {3.7}Vecteur\discretionary {-}{}{}D Class Reference}{9}{section.3.7}}
\newlabel{classVecteurD}{{3.7}{9}{Vecteur\-D Class Reference}{section.3.7}{}}
\newlabel{classVecteurD_a61dd8e81879908fa00bcd09ad1309637}{{3.7}{9}{Public Member Functions}{section*.9}{}}
\newlabel{classVecteurD_acbae73af4b373aa8fb3110576aa84c46}{{3.7}{9}{Public Member Functions}{section*.9}{}}
\newlabel{classVecteurD_aa6143b6705bc3ae493e00f0249a58b31}{{3.7}{9}{Public Member Functions}{section*.9}{}}
\newlabel{classVecteurD_a3caa0b98d7998640d5e283f8f9444535}{{3.7}{9}{Public Member Functions}{section*.9}{}}
\newlabel{classVecteurD_a713b4c7976129f7a7b086431887d098d}{{3.7}{9}{Public Member Functions}{section*.9}{}}
\@writefile{toc}{\contentsline {part}{Index}{10}{section*.10}}
