\select@language {french}
\contentsline {section}{\numberline {1}Introduction}{3}{section.1}
\contentsline {section}{\numberline {2}Explication du code}{4}{section.2}
\contentsline {subsection}{\numberline {2.1}Choix de la structure du code}{4}{subsection.2.1}
\contentsline {paragraph}{}{4}{section*.4}
\contentsline {paragraph}{}{4}{section*.5}
\contentsline {paragraph}{}{4}{section*.6}
